{
  "files": {
    "main.css": "/static/css/main.7aa2c598.chunk.css",
    "main.js": "/static/js/main.26639f03.chunk.js",
    "main.js.map": "/static/js/main.26639f03.chunk.js.map",
    "runtime~main.js": "/static/js/runtime~main.604b2c1b.js",
    "runtime~main.js.map": "/static/js/runtime~main.604b2c1b.js.map",
    "static/css/2.7ff33207.chunk.css": "/static/css/2.7ff33207.chunk.css",
    "static/js/2.13ccb547.chunk.js": "/static/js/2.13ccb547.chunk.js",
    "static/js/2.13ccb547.chunk.js.map": "/static/js/2.13ccb547.chunk.js.map",
    "index.html": "/index.html",
    "precache-manifest.b228418d2e0a6f29f5ce94786f3a034c.js": "/precache-manifest.b228418d2e0a6f29f5ce94786f3a034c.js",
    "service-worker.js": "/service-worker.js",
    "static/css/2.7ff33207.chunk.css.map": "/static/css/2.7ff33207.chunk.css.map",
    "static/css/main.7aa2c598.chunk.css.map": "/static/css/main.7aa2c598.chunk.css.map"
  }
}